Analysis Notebook
…
write.csv(tidy_all_full, file.path(out_dir, "tbl-models-summary-full.csv"), row.names = FALSE)

tidy_all_full

In [34]:

Full fixed-effect estimates (β, SE, 95% CI, p-value) for every term in every model currently in model_registry. Unlike the interaction-only summary above, this surfaces covariate effects (e.g. Substrate_index_after, Season) directly rather than requiring a one-off check per model.

# A tibble: 92 × 14
   model_id RQ    species response_type comparison time_frame term      estimate
   <chr>    <chr> <chr>   <chr>         <chr>      <chr>      <chr>        <dbl>
 1 M1ok     RQ1   Kōura   occupancy     vs_control full       (Interce…   -8.03 
 2 M1ok     RQ1   Kōura   occupancy     vs_control full       PeriodAf…    4.17 
 3 M1ok     RQ1   Kōura   occupancy     vs_control full       siteSton…    0.017
 4 M1ok     RQ1   Kōura   occupancy     vs_control full       monitori…   -0.218
 5 M1ok     RQ1   Kōura   occupancy     vs_control full       Temperat…    0.292
 6 M1ok     RQ1   Kōura   occupancy     vs_control full       PeriodAf…    1.81 
 7 M1ak     RQ1   Kōura   abundance     vs_control full       (Interce…   -1.52 
 8 M1ak     RQ1   Kōura   abundance     vs_control full       PeriodAf…    1.66 
 9 M1ak     RQ1   Kōura   abundance     vs_control full       siteSton…    0.702
10 M1ak     RQ1   Kōura   abundance     vs_control full       monitori…   -0.09 
# ℹ 82 more rows
# ℹ 6 more variables: std.error <dbl>, statistic <dbl>, p.value <dbl>,
#   p_adj_BH <dbl>, conf.low <dbl>, conf.high <dbl>
…
